^C:\USERS\YOON KIM\DOCUMENTS\GITLABREPOSITORY\ALGORITHMPROBLEMSPRACTICE\BINARYSEARCHTREES\VALIDATEBST\VALIDATEBST\DEBUG\VALIDATEBST.OBJ
C:\USERS\YOON KIM\DOCUMENTS\GITLABREPOSITORY\ALGORITHMPROBLEMSPRACTICE\BINARYSEARCHTREES\VALIDATEBST\DEBUG\VALIDATEBST.EXE
C:\USERS\YOON KIM\DOCUMENTS\GITLABREPOSITORY\ALGORITHMPROBLEMSPRACTICE\BINARYSEARCHTREES\VALIDATEBST\DEBUG\VALIDATEBST.ILK
C:\USERS\YOON KIM\DOCUMENTS\GITLABREPOSITORY\ALGORITHMPROBLEMSPRACTICE\BINARYSEARCHTREES\VALIDATEBST\DEBUG\VALIDATEBST.PDB
