^C:\USERS\YOON KIM\DOCUMENTS\GITLABREPOSITORY\ALGORITHMPROBLEMSPRACTICE\ALGORITHMPROBLEMSPRACTICE\GETGRADERANK\GETGRADERANK.CPP
C:\USERS\YOON KIM\DOCUMENTS\GITLABREPOSITORY\ALGORITHMPROBLEMSPRACTICE\ALGORITHMPROBLEMSPRACTICE\GETGRADERANK\DEBUG\VC142.PDB
C:\USERS\YOON KIM\DOCUMENTS\GITLABREPOSITORY\ALGORITHMPROBLEMSPRACTICE\ALGORITHMPROBLEMSPRACTICE\GETGRADERANK\DEBUG\VC142.IDB
C:\USERS\YOON KIM\DOCUMENTS\GITLABREPOSITORY\ALGORITHMPROBLEMSPRACTICE\ALGORITHMPROBLEMSPRACTICE\GETGRADERANK\DEBUG\GETGRADERANK.OBJ
