^C:\USERS\YOON KIM\DOCUMENTS\GITLABREPOSITORY\ALGORITHMPROBLEMSPRACTICE\BINARYSEARCHTREES\BINARYSEARCHTREECONSTRUCTION\BSTTRAVERSAL\DEBUG\BSTTRAVERSAL.OBJ
C:\USERS\YOON KIM\DOCUMENTS\GITLABREPOSITORY\ALGORITHMPROBLEMSPRACTICE\BINARYSEARCHTREES\BINARYSEARCHTREECONSTRUCTION\DEBUG\BSTTRAVERSAL.EXE
C:\USERS\YOON KIM\DOCUMENTS\GITLABREPOSITORY\ALGORITHMPROBLEMSPRACTICE\BINARYSEARCHTREES\BINARYSEARCHTREECONSTRUCTION\DEBUG\BSTTRAVERSAL.ILK
C:\USERS\YOON KIM\DOCUMENTS\GITLABREPOSITORY\ALGORITHMPROBLEMSPRACTICE\BINARYSEARCHTREES\BINARYSEARCHTREECONSTRUCTION\DEBUG\BSTTRAVERSAL.PDB
