^C:\USERS\YOON KIM\DOCUMENTS\GITLABREPOSITORY\ALGORITHMPROBLEMSPRACTICE\ALGORITHMPROBLEMSPRACTICE\BALANCEDBRACKETS\DEBUG\BALANCEDBRACKETS.OBJ
C:\USERS\YOON KIM\DOCUMENTS\GITLABREPOSITORY\ALGORITHMPROBLEMSPRACTICE\ALGORITHMPROBLEMSPRACTICE\DEBUG\BALANCEDBRACKETS.ILK
C:\USERS\YOON KIM\DOCUMENTS\GITLABREPOSITORY\ALGORITHMPROBLEMSPRACTICE\ALGORITHMPROBLEMSPRACTICE\DEBUG\BALANCEDBRACKETS.EXE
C:\USERS\YOON KIM\DOCUMENTS\GITLABREPOSITORY\ALGORITHMPROBLEMSPRACTICE\ALGORITHMPROBLEMSPRACTICE\DEBUG\BALANCEDBRACKETS.PDB
