^C:\USERS\YOON KIM\DOCUMENTS\GITLABREPOSITORY\ALGORITHMPROBLEMSPRACTICE\ALGORITHMPROBLEMSPRACTICE\COUNT0FROMN!\COUNT0FROMN!.CPP
C:\USERS\YOON KIM\DOCUMENTS\GITLABREPOSITORY\ALGORITHMPROBLEMSPRACTICE\ALGORITHMPROBLEMSPRACTICE\COUNT0FROMN!\DEBUG\VC142.PDB
C:\USERS\YOON KIM\DOCUMENTS\GITLABREPOSITORY\ALGORITHMPROBLEMSPRACTICE\ALGORITHMPROBLEMSPRACTICE\COUNT0FROMN!\DEBUG\VC142.IDB
C:\USERS\YOON KIM\DOCUMENTS\GITLABREPOSITORY\ALGORITHMPROBLEMSPRACTICE\ALGORITHMPROBLEMSPRACTICE\COUNT0FROMN!\DEBUG\COUNT0FROMN!.OBJ
